[{

        "title": "RCOAI",
        "description": "Not relationship obsessed, withdrawn, risk averse, thinks before acting, fearless, peaceful, does not like to be the centre of attention, quiet, level emotions, punctual, interested in science, patient, not easily deterred, good at saving money, values solitude, not spontaneous, avoids small talk, positive, not overly expressive of emotions, lower energy level, calm in crisis, always knows why they do things, theistic tendencies, predictable, analytical, optimistic, not prone to jealousy, not preoccupied with appearance, deeply moved by the misfortunes of others, usually happy, influenced more by self than others, true to themself in all circumstances, modest, finishes most things they start, competent, focused, more responsible than pleasure seeking, socially unskilled, planner, not physically affectionate with most people, self-confident",
        "favoured_careers": "Scientist, researcher, biochemist, scholar, microbiologist, genetics researcher, biomedical engineer, academic, computer scientist, chemical engineer, biologist, chemist, neurologist, data analyst, Data engineer, data scientist, medical researcher, strategist, lab technician, mathematician, geneticist, engineer, physicist, analyst, astronomer, philosopher, aerospace engineer, math teacher, theologian, college professor, nuclear engineer, environmental scientist, Climate scientist, computer engineer, systems analyst, technician, medical doctor, information technology, neurosurgeon, cardiologist, geologist, civil servant, chemistry teacher, archaeologist, archivist, surgeon",
        "disFavoured_career": "Performing arts, fashion industry, entertainment industry, Social worker"
    },
    {
        "title": "RCOAN",
        "description": "Not spontaneous, uncompetitive, not relationship obsessed, toned down, not physically affectionate with most people, not outgoing, does not like to be the centre of attention, organized, level emotions, thinks before acting, religious tendencies, easy to understand, risk averse, realistic, modest, focused, not prone to addiction, not wild and crazy, feels ordinary, punctual, prefers to finish things ahead of schedule, patient, always prepared, exacting in their work, not interested in science, predictable, honest, averse to change, lower energy level, avoids making mistakes, private, not hard to satisfy, not easily discouraged, not prone to jealousy, values rules and regulations, calm in crisis, forgiving, responsible, usually happy, does not like small talk",
        "favoured_careers": "Child care worker, kindergarten teacher, health care worker, office worker, career in public health, office administration, banker, hospitality worker, cashier, customer services, career in the medical field, social worker, paediatrician, athletic or fitness trainer, physical therapist, accountant, hospitality manager, career in sports medicine, wedding planner, veterinary tech, human resources manager, pharmacist or pharmacy tech, dental hygienist, Nutritionist",
        "disFavoured_career": "Performing arts, fashion industry, entertainment industry, Scientist, researcher, philosopher."
    },
    {
        "title": "RLOAN",
        "description": "Not spontaneous, prefers organized to unpredictable, reserved, fearful, anxious, insecure, more responsible than pleasure seeking, easily intimidated, avoid taking risks uncomfortable in unfamiliar situations, attached to conventional ways, second guesses self, backs down when threatened, afraid of providing criticism, quiet around strangers, afraid to draw attention to self, overwhelmed by unpleasant emotions frequently, averse to crowds, easily moved to tears, fears failure, does not like arguments, unable to speak up for self, embarrassed easily, easy to persuade, finishes most things they start, not good at telling jokes, not very curious, modest, depressed, feels ordinary, not wild and crazy, planner, prone to panic, organized, not big on philosophical discussions, sceptical, apologetic, values rules and regulations, prefers to finish things ahead of schedule, socially unskilled, inflexible, punctual",
        "favoured_careers": "Administration, bank officer, early childhood educator, child care worker, paediatric nurse, health care worker, wedding planner, school teacher, hospitality worker, dentist, public health, social worker,",
        "disFavoured_career": "Philosopher, ambassador, strategist, astronaut, entertainment industry, creative director, political scientist, game designer, reporter, politician, scholar, entrepreneur, play writer, fighter pilot, video game designer, diplomat, record producer, physicist,"
    },
    {
        "title": "RLOAI",
        "description": "Withdrawn, loner, not wild and crazy, does not like the spotlight, worrying, crowd averse, afraid to draw attention to self, easily hurt, fearful, prone to low physical fitness, prone to health problems, hard to get to know, risk averse, unable to speak up for self, becomes overwhelmed by events, not self-confident, depressed, embarrassed by praise, prefers organized to unpredictable, apprehensive about new encounters, not good at telling jokes, easily intimidated, quiet around strangers, socially unskilled, easily offended, avoids being a bother to anyone, anxious, plays it safe, not spontaneous, some attraction to things associated with sadness, easily discouraged, apologetic, requires lots of time alone to recharge, self-loathing, avoidant, second guesses self, low energy level, values solitude, not physically affectionate with most people, not competitive, thinks before acting, not aggressive, very clean, feels unattractive, values rules and regulations, avoids small talk",
        "favoured_careers": "Scholar, academic, research scientist, writer, archaeologist, microbiologist, medical researcher, psychologist, historian, forensic psychologist, environmental scientist, Climate scientist, genetics researcher, editor, English professor, museum curator, theologian, philosopher, author, psychotherapist, astronomer, archivist, biochemist, college professor, biologist, psychoanalyst, neurologist, forensic scientist, chemist, forensic anthropologist, history professor, psychiatrist, non-profit sector, math teacher, clinical psychologist, data analyst, data scientist, art historian, English teacher, biotechnology, biomedical engineer, linguists, publisher",
        "disFavoured_career": "Entertainment industry, fashion industry, radio broadcaster, sales manager, driver, marketing manager, advertising, sports management, business manager, broadcasting,"
    },
    {
        "title": "RLUAI",
        "description": "Moody, not good at sports, low energy level, unable to speak up for self, depressed, withdrawn, attracted to things associated with sadness, feels defective, no self-confidence, easily discouraged, backs down when threatened, easily intimidated, socially unskilled, unproductive, late with work, prone to health problems, focuses on fantasies more than reality, easily hurt, becomes overwhelmed by events, fearful, rarely prepared, fears doing the wrong thing, often aware how the colour and lighting of a room affects their mood, feels untalented, quiet around strangers, prone to addiction, doubting, anxious, easily confused, frequently overwhelmed by unpleasant feelings, weak sense of purpose, relates to broken and discarded things, unsure where life is going, continually losing things, fears drawing attention to self, avoids unnecessary interaction, often bored, second guesses self, embarrassed by praise, prone to jealousy",
        "favoured_careers": " Novelist, poet, philosopher, author, professor of english, museum curator, playwright, anthropologist, art historian, artist, research scientist, archaeologist, Egyptologist, researcher, art curator, songwriter, comic book artist, screenwriter, composer, book editor, musician, scholar, historian, theologian, research psychologist, school psychologist, part of non-profit sector, palaeontologist, cartoonist, astronomer, painter, English teacher, theatre technician, illustrator, environmentalist, music therapist, publisher, psychotherapist, history professor, ecologist, psychoanalyst, curator, clinical psychologist, psychologist, video game designer, wildlife biologist, scientist, art teacher, photo journalist, activist, cinematographer, music journalist, graphic artist, travel writer, filmmaker, music educator, child psychologist, marine biologist, editor, art director, zoologist, art education, botanist, forensic anthropologist",
        "disFavoured_career": "Businessman, business manager, manager, athletic or fitness trainer, supervisor, office manager, event coordinator, management consultant, sales manager, real estate agent, event planner, sports management, athlete, executive, personal trainer, business owner, marketing manager, office administrator, real estate professional, real estate investor, business administrator, entrepreneur, marketing director, fashion merchandiser, financial manager, salesman, financial planner, public relations specialist, corporate lawyer, sales associate, project manager, admin support, executive assistant."
    },
    {
        "title": "RLUAN",
        "description": "Socially unskilled, low self-confidence, afraid of providing criticism, discontent, negative, apologetic, not a leader, quiet around strangers, easy to fool, low energy level, easily distracted, avoids crowds, avoids unnecessary social interaction, anxious, worrying, pessimist, unambitious, private, dependent, easily hurt, dislikes the spotlight, easily discouraged, not punctual, finishes work late, unadventurous, uninterested in science, prone to panic, easily embarrassed, happy doing mindless work, unproductive, embarrassed by praise, easy to influence, feels unattractive, uncompetitive, modest, feels untalented, not big on philosophical discussions, verly nice, avoids being a bother to anyone",
        "favoured_careers": "Childcare worker, kindergarten teacher, social worker, makeup artist, musician, cosmetologist, poet, librarian, bookstore owner or employee, veterinary tech, photographer, fashion designer, freelance artist, cartoonist, paediatric nurse, songwriter, school teacher costume designer, counsellor, photo journalist, career in the non-profit sector, art teacher, retail employee, nurse, zoologist, computer animator, theatre technician, child psychologist, school psychologist, artist",
        "disFavoured_career": "Philosophy, computer science, information technology, politician, researcher, scientist"
    },
    {
        "title": "RCUAN",
        "description": "Uncompetitive, unadventurous, level emotions, not spontaneous, dislikes the spotlight, does not like to display anger, backs down when threatened, risk averse, unambitious, disorganized, not detail oriented, not manipulative, slow to acquire skills, patient, not relationship obsessed, not aggressive, not wild and crazy, underachiever, easily deterred, no interest in leadership, inattentive to the social hierarchy, not superficial, independent, not self-absorbed, does not look for hidden meaning in things, modest, embarrassed by praise, tolerant, not very inquisitive, not easily frustrated, not prone to jealousy, easily confused, forgiving, not punctual, easy to satisfy, rarely prepared, private, avoids crowds, attached to conventional ways, not interested in science, slow to judge others, not open about feelings, positive, not interested in abstract ideas, feels ordinary, willing to try new things, not materialistic",
        "favoured_careers": "Construction, race car driver, guitarist, school teacher, police officer, graphic designer, childcare worker, soldier, military employee, cook, computer animator, video game designer, wildlife biologist, photographer, pilot, paramedic, veterinary tech, animator, nurse, illustrator, career in art education, music performer, chef, social services worker, kindergarten teacher, baker, artist",
        "disFavoured_career": "University professor, executive, project manager, event coordinator, ambassador, supervisor, academic, business manager, international business specialist, business consultant, strategist, entrepreneur, philosophy professor, scholar, business administrator"
    },
    {
        "title": "RCUAI",
        "description": "Avoidant, often late, patient, rarely prepared, non-aggressive, slow to judge others, unconcerned with image, relaxed, avoids crowds, easy going, not demanding, unambitious, private, thinks before acting, concerned with the feelings of others, not wild and crazy, not controlling, does not like to show anger, hard to offend, dislikes the spotlight, uninterested in leading, not competitive, overly nice, not physically affectionate with most people, level emotions, agnostic/atheistic tendencies, not picky about food, not relationship obsessed, unproductive, unimposing, plain in appearance, disorganized, lower energy level, very curious, uninterested in prestige/fame, not superficial, likes difficult reading material, fearless, flexible, trusting, does not stick to plans, easily distracted, interested in science, unconcerned that people have trouble reading them,, modest, not swayed by emotions",
        "favoured_careers": "Philosopher, research scientist, novelist, author, astronomer, astronaut, freelance writer, archeologist, researcher, environmental scientist, scholar, physicist, anthropologist, theologian, bookseller, biotechnology, guitarist, game designer, aerospace engineer, college professor, geologist, pilot, Egyptologist, video game designer, audio engineer, poet, ecologist, biochemist, animator, genetics researcher, forensic anthropologist, wildlife biologist, computer programmer, paleontologist, chemist, comic book artist, cartoonist, engineer, art historian, strategist, psychoanalyst, artist, historian, computer engineer,  computer animator, political scientist, forensic scientist, history professor, software engineer, screenwriter microbiologist, Data scientist, data engineer, statistician",
        "disFavoured_career": "Executive, manager, fashion designer, fashion editor, office administrator, executive assistant, businessman, interior designer/decorator, sales manager, business manager, real estate agent, administrative assistant, office assistant, business administrator, business consultant"
    },
    {
        "title": "RCOEI",
        "description": "Withdrawn, not wild and crazy, not swayed by emotions, insensitive to the needs of others, unhelpful, interested in intellectual pursuits, avoidant, does not put the needs of others ahead of self, thinks before acting, very scientific, not upset by the misfortune of strangers, avoids small talk, values solitude, fearless, unaffected by the suffering of others, calm in crisis, not easily excited, not known for generosity, not easily confused, not prone to complimenting others, hard to get to know, dominant not easily hurt, driven by reason, influenced more by self than others, rarely worried, hard to impress, not that interested in relationships, hard to influence, not concerned about failing when trying something new, self-confident, not easily moved to tears, not prone to jealousy, ",
        "favoured_careers": "Scientist, data scientist, bio informatics, data engineer, computer scientist, researcher, strategist, aerospace engineer, astronomer, nuclear engineer, biotechnology, analyst, chemical engineer, scholar, systems engineer, academic, engineer, computer engineer, mechanical engineer, biochemist, data analyst, military philosopher, chemist, physicist, industrial engineer, mathematician, information technology, genetics researcher, software engineer, software developer, philosophy professor, systems analyst, biomedical engineer, research assistant, computer programmer,  astronaut, microbiologist, geneticist, computer industry, civil engineer, electrical engineer, network engineer, financial analyst, business analyst, economist, database administrator, environmental scientist, computer tech, archaeologist, statistician, diplomat, financial advisor, software designer, biologist, architect, chemistry teacher",
        "disFavoured_career": ", Child care worker, makeup artist, wedding planner, fashion merchandiser, fashion industry, kindergarten teacher, performer, fashion editor, social services worker, fashion designer, model, school counselor, school teacher, entertainment industry, beautician, early childhood educator, social worker, performing arts, "
    },
    {
        "title": "RCOEN",
        "description": "Not concerned with public image, not spontaneous, realistic, thinks before acting, not relationship obsessed, withdrawn, money is more important than acceptance, level emotions, does not put the welfare of others before self, not known for generosity, retaliatory, not forgiving, selfish, driven by reason, avoids difficult reading material, not physically affectionate with most people, unadventurous, insensitive to the needs of others, does not like touchy feely people, believes in an eye for an eye, avoids small talk, avoids crowds, Courageous, not than interested in people, thinks fun is not the most important thing in life, acts without consulting others, does not frequently reinvent self, not open to new experiences, not open about feelings, does not like to look weak, socially unskilled, hard to excite, not prone to comedy, more responsible than pleasure seeking",
        "favoured_careers": "Banker, accountant, office assistant, office worker, loan officer, office manager, computer industry, office administrator, financial manager, businessman, financial planner, business manager, real estate professional, financial analyst, business administrator, investment banker, business owner, financial advisor, insurance agent, computer networking specialist, database administrator, career in the insurance industry, business analyst, executive assistant, real estate agent, management consultant,",
        "disFavoured_career": "Philosopher, author, philosophy professor, psychiatrist, freelance writer, performing arts, novelist, psychoanalyst, theater industry, performer, psychologist, music performer, pet, entertainer, actor, songwriter, clinical psychologist, scholar, college professor, psychotherapist, sociologist, playwright, activist, creative director"
    },
    {
        "title": "RLOEN",
        "description": "Moody, not spontaneous, planner, unadventurous, withdrawn, not big on art, not open to new experiences, not wild and crazy, avoids unnecessary interaction, not impulsive, not physically affectionate with most people, averse to change, not big on fun, socially unskilled, risk averse, feels untalented, thinks before acting, avoids crowds, uncomfortable in unfamiliar situations, lower energy level, not that interested in relationships, not big on public speaking, easily frightened, slow to forgive, strict with self, not a comedian, prepares for worst case scenarios, not calm, organized, avoidant, not very inquisitive, avoids small talk, quick to judge others, easily annoyed, close minded, tense, prefers organized to unpredictable, hard to get to know, insensitive to the needs of others, not known for generosity, attached to conventional ways, pessimistic, acts with ulterior motives, not interested in science, ",
        "favoured_careers": "Dentist, finance, accountant, interior decorator, pharmacist, office administrator, beautician, wedding planner, insurance agent, business administrator, banker, financial advisor, legal secretary, dietician, office manager, career in the fashion industry, administrative support",
        "disFavoured_career": "Philosopher, author, psychiatrist, freelance writer, performing arts, novelist, psychoanalyst, theater industry, performer, psychologist, music performer, pet, entertainer, actor, songwriter, clinical psychologist, scholar, psychotherapist, sociologist, playwright, activist, creative director, scientist, researcher"
    },
    {
        "title": "RLOEI",
        "description": "Withdrawn, moody, dislikes crowds, avoidant, not big on fun, socially unskilled, depressed,  socially awkward, feels defective, averse to change, low self-confidence, dislikes small talk, not prone to complimenting others, driven by own personal gain, pessimistic, indifferent to the feelings of others, does not easily forgive, inflexible, skeptical, embarrassed easily, tense, lower energy level, interested in intellectual pursuits, does not put the welfare of others ahead of self, not known for generosity, unadventurous, quick to judge others, discontent, hard to understand, believes in a logical answer for everything, worrying, uncooperative, agnostic/atheist tendencies,",
        "favoured_careers": "Researcher, scientist, scholar, academic, historian, university professor, astronomer, data analyst, book editor, library assistant, genetics researcher, novelist, philosopher, analyst, systems analyst, bookseller, computer scientist, archivist, biotechnology, mathematician, statistician, data scientist, Bio Informatics, Robotics, neurologist, policy analyst, author, biologist, strategist, philosophy professor, biochemist, research psychologist, technical writer, geneticist, environmentalist, history professor, archeology, aerospace engineer, information technology, political scientist, physicist, editor, art historian, anthropologist, botanist, forensic scientist, medical researcher, publisher, forensic anthropologist, Egyptologist, freelance writer, paleontologist, biomedical engineer, microbiologist, ecologist, geologist, software developer, software engineer, virologist, computer programmer, chemist, engineer",
        "disFavoured_career": "Entertainer, childcare worker, event coordinator, performer, comedian, actor, coach, part of the recording industry, sports management, social services, salesman"
    },
    {
        "title": "RLUEI",
        "description": "Avoidant, withdrawn, not usually happy, does not believe in human goodness, moody, avoids crowds, unsure where life is going, impatient, avoids eye contact, does not think things work out for the best, discontent, negative, suspicious of others, uncooperative, socially uncomfortable, hard to understand, not punctual, low self-confidence, pessimistic, does not finish work on time, does not like to lead, attracted to things associated with sadness, ambivalent about the problems of others, feels defective, fears failure, often bored, unproductive, avoids unnecessary interaction, easily frustrated, does not finish many things, lower energy level, focuses on fantasies instead of reality, ambivalent about the needs of others, easily annoyed, rarely prepared, disorganized, quiet around strangers, slow to forgive, hard to understand, not that interested in others, ",
        "favoured_careers": "Philosopher, freelance writer, novelist, author, astronomer, book editor, freelance artist, scholar, bookstore owner,  screenwriter, philosophy professor, poet, cinematographer, artist, playwrighter, comic book artist, publisher, archeologist, scientist, composer, video game designer, Egyptologist, museum curator, researcher, paleontologist, anthropologist, genetics researcher, historian, theologian, research psychologist, art director, research scientist, songwriter, history professor, linguistics, computer animator, illustrator, painter, cartoonist, library assistant, travel writer, film critic, environmental scientist, filmmaker, journalist, data scientist, data engineer aerospace engineer, political scientist, computer scientist, art curator, archivist, art education, college professor, academic, technical writer, webmaster, animator, psychoanalyst, music journalist, geneticist, astronaut, research assistant, software developer, website designer, movie director, web developer, film editor, copywriter, digital artist, editor music therapist, geologist, biologist, biochemist, ",
        "disFavoured_career": "Supervisor, sports management, event planner, wedding planner, even coordinator, manager, business administrator, administrator, businessman, childcare worker, hospitality manager, hospitality worker, coach, office manager, sales associate, business manager, athletic trainer, kindergarten teacher, preschool teacher, office administrator, human resources manager, health care worker, public relations manager, personal assistant, customer service representative, business owner, early childhood educator, social services worker, sales manager, nurse practitioner, pediatric nurse"
    },
    {
        "title": "RLUEN",
        "description": "Overwhelmed by unpleasant feelings frequently, feels unattractive to others, socially unskilled, easily confused, discontent, pessimistic, withdrawn, feels ordinary, easily offended, lower energy level, impatient, not usually happy, not well informed, does not believe in human goodness, does not admit mistakes, not open to new experiences, moody, not known for generosity, selfish, unambitious, unadventurous, inflexible, easily discouraged, insensitive to the needs of others, not that interested in others, dislikes crowds, driven by own personal gain, unassertive, tense, fearful, unimaginative, uncooperative, feels incapable, dependent, doubting, not good at sports, weak sense of purpose, feels untalented, can be aggressive when hurt, easily moved to tears, quiet around strangers, acts without thinking, relates to broken and discarded things, slow to acquire skills",
        "favoured_careers": "Cartoonist, illustrator, digital artist, song writer, video game designer, computer animator, web designer, art director,  graphic artist, job in professional athletics, job in the arts and media industry, software designer, video editor, music producer, freelance artist, webmaster, costume designer, graphic designer",
        "disFavoured_career": "academic, project manager, college professor, manager, public relations specialist, instructor, supervisor, educator, administrator, research scientist, management consultant, ambassador, international relations specialist, strategist, business administrator, researcher, scholar, executive"
    },
    {
        "title": "RCUEN",
        "description": "Not easily hurt, keeps emotions under control, spends more time in solitary activities than group activities, when ending an association - tends to stop all communication without explanation, does not readily admit mistakes, underachiever, not known for generosity, level emotions, does not care what people think, does not fit in, more logical than abstract, does not value tradition, uninterested in leadership, not impressionable, not prone to envy, values money over acceptance, not open about feelings, unproductive, values solitude, not very happy, pessimistic, plain appearance, inflexible, not afraid of doing the wrong thing, unable to stand up for self, slow to forgive, does not care about image, not prone to giving compliments, rarely prepared, quiet around strangers, does not like touchy feely people, avoids responsibilities, avoids difficult reading material, rarely reinvents self, does not like to lead, not prone to worrying",
        "favoured_careers": "Game or video game designer, race car driver, sound engineer, construction busienss, automotive business, musician, job in professional athletics, video editor, software designer, comic book artist, fighter pilot, animator, cartoonist, software developer, computer programmer, webmaster, electrical engineer, graphic artist, engineer, career in the computer industry,  industrial engineer, career in the military, industrial engineer, computer technician, webdeveloper, systems engineer, web designer, mechanical engineer, pilot, graphic designer, ",
        "disFavoured_career": "Counselor, academic, teacher, educator, psychologist, college professor, child psychologist, scholar, psychiatrist, event planner, English teacher, therapist, public relations manager, wedding planner, sociologist, medical doctor, research scientist, psychotherapist, public relations specialist"
    },
    {
        "title": "RCUEI",
        "description": "Unconcerned with public image, lower energy level, does not value tradition, does not put the welfare of others above self, not punctual, unproductive, does not believe in human goodness, not easily moved to tears, seldom bothered by the suffering of strangers, relaxed, quiet around strangers, tendency to believe only in self, people have trouble reading them but they don't care, late finishing work, acts without planning, withdrawn, rarely too busy, not a perfectionist, uncooperative, not prone to complimenting people, avoids crowds, prefers unpredictable to organized, not passionate about bettering the world's condition, able to control cravings, calm in crisis, ambivalent to the feelings of others, believes in the importance of art, dislikes small talk, socially uncomfortable, private, not known for generosity, acts without consulting others, hard to get to know, not easily frustrated, interested in intellectual pursuits,  asks many questions, open to change, influenced more by self than others, bored at work",
        "favoured_careers": "Philosopher, scientist, video game designer, astronomer, aerospace engineer, author, nuclear engineer, astronaut, Data scientist, data analyst, data engineer, anthropologist, archeologist, researcher, strategist, computer scientist, software engineer, game designer, software developer, genetics researcher, freelance writer, paleontologist, engineer, Egyptologist, biotechnology, physicist, book editor, scholar, political scientist, historian, novelist, biochemist, sound engineer, chemical engineer, screenwriter, audio engineer, comic book artist, pilot, computer animator, academic, fighter pilot, biomedical engineer, biologist, web designer, civil engineer, microbiologist, playwriter, artist, network engineer, political analyst, composer, neurologist, botanist, professional musician, film director, mechanical engineer, linguist, theologian, systems engineer, Historian,  cartoonist, cinematographer, architect",
        "disFavoured_career": "Child care worker, wedding planner, event planner, event coordinator, child care worker, childhood educator, personal assistant, fashion merchandiser, fashion industry, kindergarten teacher, office assistant, preschool teacher, health care worker, hospitality worker, guidance counselor, social worker, interior decorator"
    },
    {
        "title": "SCOAI",
        "description": "Happy, level emotions, not easily discouraged, optimistic, fearless, self confident, non-hostile, trusting, rarely sad, social, content, positive, knows where life is going, socially skilled, not quiet around strangers, takes on responsibilities, likes public speaking, not prone to worrying, not apprehensive about new encounters, flexible, adapts easily to new situations, not afraid to draw attention to self, likes to lead, not bored while working, likes others, hard to annoy, calm in crisis, not embarrassed easily, high energy level, easy to understand, thinks before acting, strong sense of purpose, likes crowds, interested in science, not prone to jealousy, comfortable in unfamiliar situations, not skeptical, true to self in all circumstances, highly motivated to succeed, decisive, easy to get to know, narcissistic, driven by reason, physically fit, passionate about bettering the world's condition, finishes most things they start, not easily confused, willing to explain things twice",
        "favoured_careers": "Medical doctor, scientist, biotechnology, academic, research scientist, scholar, paramedic, strategist, biologist, forensic scientist, ambassador, public health professional, neurologist, project manager, supervisor, philosopher, biochemist, medical examiner, medical researcher, political scientist, neurosurgeon, mathematician, international relations specialist, public relations specialist, lawyer, surgeon, manager, philosophy professor, psychologist, chemist, public relations manager, pediatrician, genetics researcher, microbiologist, research psychologist, chemistry teacher, sports medicine, military intelligence, nurse, entrepreneur, health educator, physiotherapist, politician, forensic pathologist, diplomat, cardiologist, judge, fitness trainer",
        "disFavoured_career": " Comic book artist, cartoonist, fashion designer, Graphic designer, artist, social worker, Engineering, entertainment industry"
    },
    {
        "title": "SCOAN",
        "description": "Easy to understand, knows where life is going, not anxious, social, realistic, easy to get to know, does not require lots of time alone to recharge, fearless, happy, not self reflective, not doubting, level emotions, peaceful, non-hostile, does not fear failure, content, positive, good at sports, finishes most things they start, likes eye contact, easy to satisfy, accomplishes work on time, self confident, not prone to addiction, narcissistic, likes to lead, socially skilled, assertive, outgoing, trusting, not easily hurt, decisive, clean, orderly, good at getting people to like them, thinks before acting, usually not bored, worry free, productive, hard working, responsible, punctual, able to stand up for self, very busy, not easily distracted, logical, generous, planner",
        "favoured_careers": "Event planner, wedding planner, early childhood educator, child care worker, preschool teacher, guidance counselor, school counselor, social worker, kindergarten teacher, school psychologist, administration, fashion merchandiser, public relations specialist, child psychologist, health care worker, elementary school teacher, cosmetologist, pediatric nurse, nurse, customer service employee, interior designer, office worker",
        "disFavoured_career": "Philosopher, scientist, video game designer, research scientist, astronaut, biotechnology, philosophy professor,  astronomer, strategist, archeology, pilot, biochemist, computer engineer, engineer, computer scientist, aerospace engineer, environmental scientist, chemical engineer, paleontologist, biologist, computer networking, fighter pilot, nuclear engineer, architect, political scientist, military intelligence, computer programmer, software developer, archeologist, cia agent, sound engineer, computer tech, Data Scientist, Data Engineer, Data analyst"
    },
    {
        "title": "SLOAN",
        "description": "Makes plans and sticks to them, easily moved to tears, prefers organized to unpredictable, easy to get to know, clean, orderly, easily frustrated, heart over mind, prefers to finish things ahead of schedule, always on the go, organized, tense, easily hurt, prone to panic, gregarious, punctual, perfectionist, realist, narcissistic, worrying, values rules and regulations, uninterested in science, competitive, interested in others, always prepared, aggressive, fears doing the wrong thing, generous, helpful, hard working, productive, socially skilled, ambivalent about theoretical discussions, strong sense of purpose, likes to lead, apologetic, finishes most things they start, not scientific, dislikes science fiction, spends more time in group activities than solitary activities, not mystical, not manipulative, traditional, emotional, fits in most places, prefers the familiar to the unfamiliar, motivated, prefers to do things with others",
        "favoured_careers": "Child care worker, event planner, kindergarten teacher, wedding planner, preschool teacher, early childhood educator, pediatric nurse, nurse, health care worker, elementary school teacher, event coordinator, hospitality manager, athletic trainer, trainer, customer service employee, public health, manager, school counselor, customer service representative, public relations specialist, social worker, executive assistant, office manager, supervisor, sports medicine, youth minister, administrator, medical assistant, public relations manager, sports management, administrative assistant,  personal trainer, teacher, lifeguard, athlete, home maker, pediatrician, office worker, guidance counselor, fashion merchandiser, physical therapist, ",
        "disFavoured_career": "Philosopher, scientist, video game designer, research scientist, astronaut, biotechnology, philosophy professor,  astronomer, strategist, archeology, pilot, biochemist, computer engineer, engineer, computer scientist, aerospace engineer, environmental scientist, chemical engineer, paleontologist, biologist, computer networking, fighter pilot, nuclear engineer, architect, political scientist, military intelligence, computer programmer, software developer, archeologist, cia agent, sound engineer, computer tech, Data Scientist, Data Engineer, Data analyst"
    },
    {
        "title": "SLOAI",
        "description": "Open, organized, asks lots of questions, outgoing, prone to panic, easily hurt, narcissistic, detail oriented, concerned about others, the first to act, finishes most things they start, comfortable around others, upset by the misfortunes of strangers, socially skilled, compliments others frequently, interested in people, busy, interested in the problems of others, tense, physically affectionate, overly nice, likes to lead, generous, in touch with feelings, not afraid to draw attention to self, manipulative, prone to jealousy, worrying, easily excited, frequently driven to impress others, passionate about causes, swayed by emotions, curious, anxious, passionate about bettering the world's condition, stressed, keeps spaces clean, believes in human goodness, well informed, thoughtful, assertive, fears doing the wrong thing, rushed",
        "favoured_careers": "Counselor, medical doctor, academic, event coordinator, college professor, school counselor, guidance counselor, psychologist, psychoanalyst, clinical psychologist, school psychologist, therapist, professor of english, teacher, research psychologist, psychiatrist, social worker, philosophy professor, educator, english teacher, sociologist, activist, event planner, consultant, psychotherapist, forensic psychologist, instructor, theologian, journalist, forensic scientist, health educator, political scientist, special education teacher, researcher, freelance writer, administrator, research scientist, author, lawyer, kindergarten teacher, public relations specialist, book editor, high school teacher",
        "disFavoured_career": "Video game designer, fighter pilot, computer animator, military employee, electrical engineer, mechanical engineer, plumber, pilot, comic book artist, digital artist, computer engineer, computer industry, computer scientist"
    },
    {
        "title": "SLUAI",
        "description": "Easily confused, often late, rarely prepared, passionate about better the world's condition, easily distracted, wild and crazy, longs for a stabilizing relationship, often rushed, show off, prone to worry, frequently loses things, does not accomplish work on time, acts without thinking, not good at sports, easily hurt, scatter-brained, very curious, spontaneous, not too hard working, can be talked into doing silly things, unpredictable, asks many questions, interested in others, upset by the misfortunes of strangers, believes in the importance of art, have many different interests to just one, does not often know why they do things, moody, likes to be the center of attention, swayed by emotions, focuses on fantasies more than reality, acts without planning, becomes overwhelmed by events, able to disregard the rules, not good at saving money, eager to sooth hurt feelings, afraid of doing the wrong thing, aggressive ",
        "favoured_careers": "Author, philosophy professor, freelance writer, poet, philosopher, activist, journalist, novelist, freelance artist, playwright, theater industry, performer, songwriter, entertainer, artist, performing arts, creative director, actor, psychoanalyst, theater teacher, psychotherapist, comedian, music journalist, theater director, filmmaker, college professor, media industry, music therapist, painter, broadcast journalist, art director, screen writer, radio broadcaster, art curator, movie director, art therapist, psychiatrist, photojournalist, archeologist, photographer, reporter, psychologist, cinematographer, photo journalist, english teacher, book editor, publisher, travel writer, film critic, art teacher, anthropologist, sociologist, editor, environmentalist, illustrator, counselor",
        "disFavoured_career": "Business administrator, financial planner, office manager, financial manager, business manager, banker, sports management, administrative support, accountant, account manager, financial analyst, office worker, business consultant, investment banker"
    },
    {
        "title": "SLUAN",
        "description": "Often late, influenced more by others than self, easily frustrated, frequently driven to impress others, easily moved to tears, fires back when someone hurts them, not analytical, easily distracted, does not always know what they are doing, easy to get to know, easily impressed, easily influenced, rarely prepared, not controlling, prone to jealousy, low self-confidence, not self-reflective, fun-loving worrying, easily hurt, spontaneous, tense, not detail oriented, unpredictable, prone to attachment, not afraid to draw attention to self, anxious, does not know why they do some things, not strict with self, attentive to appearances, underachiever, bases goals on inspiration rather than logic, will do a lot to avoid rejection, swayed by emotions, uses acts of kindness to get closer to people",
        "favoured_careers": "Entertainer, makeup artist, actor, performer, childcare worker, fashion merchandiser, radio dj, fashion designer, beautician, kindergarten teacher, theater industry, performing arts, fashion editor, school counselor, singer, wedding planner, analyst, costume designer, news anchor, child psychologist, guidance counselor, school teacher, arts and media, entertainment industry, photographer, event coordinator, cosmetologist, stage manager, professional photographer, social worker, receptionist, counselor, interior decorator, photo journalist, broadcaster, social services worker, interior designer",
        "disFavoured_career": "Philosopher, research scientist, researcher, strategist, scientist, academic, scholar, computer engineer, computer industry, technology industry, biotechnology, biomedical engineer, astronomer, systems analyst, nuclear engineer, government employee, data analyst, political scientist, mathematician, Statistician"
    },
    {
        "title": "SCUAN",
        "description": "Social, not easily hurt, comes alive in night life activities and crowds, trusting, fits in most places, positive, more comfortable when things are imperfect, more artistic than articulate, does not like to go days without speaking to anyone, more abstract than logical, not self-absorbed, not materialistic, self-expressive, modest, not vain, likes change, not introspective, help others, loyal to a fault, wild and crazy, acts without thinking or planning, thoughtful, happy doing mindless work, easy to persuade, high energy level, rarely prepared, outgoing, self-confident, easy to get to know, fearless, content, positive, optimistic, relaxed, usually happy, able to disregard rules, underachiever, likes to tell jokes, not embarrassed easily, adapts easily to new situations, interested in others",
        "favoured_careers": "Comedian, entertainer, performer, child care worker, entertainment industry, music industry, performing arts, athlete, race car driver, sports management, makeup artist, early childhood educator, coach, physical therapist, stage manager, event coordinator, beautician, fashion industry, movie director, police officer, flight attendant, fashion merchandiser, broadcaster, wedding planner, photographer, creative director, theater director, public relations manager, pediatric nurse, musician, athletic trainer, high school teacher, fashion designer, school counselor",
        "disFavoured_career": "Philosopher, research scientist, researcher, strategist, scientist, academic, scholar, computer engineer, computer industry, technology industry, biotechnology, biomedical engineer, astronomer, systems analyst, nuclear engineer, government employee, data analyst, political scientist, mathematician, Statistician"
    },
    {
        "title": "SCUAI",
        "description": "Life of the party, not bothered by disorder, not afraid of doing the wrong thing, often late, level emotions, not afraid to draw attention to self, worry free, people loving, fearless, not apprehensive about new encounters, likes philosophical discussions, disorganized, not easily annoyed, not a perfectionist, enjoys danger, comfortable in unfamiliar situations, anxiety free, always joking, not very private, very curious, not embarrassed easily, adventurous, flexible, narcissistic, trusting, easy to get to know, easy to satisfy, likes crowds, ready to act on the spot, outgoing, not easily discouraged, optimistic, open to new experience, slow to judge others, fun loving rarely prepared, willing to take risks, adjusts easily, passionate about causes, willing to explain things twice, spontaneous, relaxed, eager to soothe hurt feelings",
        "favoured_careers": "Philosopher, philosophy professor, comedian, entertainer, activist, screenwriter, poet, freelance writer, performing arts, author, novelist, freelance artist, ambassador, diplomat, music performer, guitarist, college professor, theologian, astronaut, radio broadcaster, broadcast journalist, playwright, politician, environmental scientist, archeologist, civil servant, theater director, egyptologist, artist, psychoanalyst, travel writer, psychiatrist, archeology, movie producer, scientist, creative director, environmentalist, international relations specialist, composer, journalist, wildlife biologist, historian, scholar, biotechnology, cinematographer, high school english teacher, high school history teacher, anthropologist, music industry, political scientist, theater technician, research psychologist",
        "disFavoured_career": "Office worker, office manager, office administrator, accountant, financial manager, investment banker, banker, loan officer, financial analyst, financial planner, account manager, wedding planner, personal assistant, beautician, insurance agent"
    },
    {
        "title": "SCOEI",
        "description": "Not afraid of doing the wrong thing, speaks up regardless of consequences, more dominant than submissive, not afraid to draw attention to self, self-confident, does not back down when threatened, decisive, feels you have to be tough on people to get things done, not easily hurt, worry free, not easily intimidated, not concerned with failure when trying something new, aggressive, fearless, controlling, domineering, ambivalent about the suffering of strangers, not easily discouraged, out for own personal gain, comfortable in unfamiliar situations, unconcerned with the misfortunes of strangers, likes giving speeches, not easily moved to tears, manipulative, unapologetic, knows where life is going, narcissistic, exacting in their work, untouched by other people's feelings, the first to act,  never at a loss for words, opinionated, demanding, goes after what they want, believes in a logical answer for everything, show off, calm in crisis",
        "favoured_careers": "Entrepreneur, executive, ambassador, strategist, businessman, business analyst, corporate lawyer, international business specialist, project manager, diplomat, political scientist, business consultant, business administrator, business manager, political analyst, entrepreneur, stock broker, politician, management consultant, financial manager, lawyer, scientist, investment banker, scholar, college professor, international relations specialist, philosophy professor, policy analyst, marketing director, judge, financial advisor, academic, research scientist, consultant, economist, philosopher, marketing manager, operations manager, financial planner, analyst, marketing specialist, supervisor, mathematician, advertising executive, dictator, entertainment lawyer, biomedical engineer, business owner, nuclear engineer, administrator, researcher, genetics researcher, aerospace engineer, astronaut, biochemist, data analyst, international spy, financial analyst, chemical engineer, public relations specialist, civil engineer, neurosurgeon, neurologist, real estate investor architect, military intelligence",
        "disFavoured_career": "Childcare worker, school teacher, kindergarten teacher, school teacher, photographer,  social worker,  nurse, beautician, makeup artist,  pediatric nurse, librarian"
    },
    {
        "title": "SCOEN",
        "description": "Not easily hurt, motivated, likes compliments, not mystical, not prone to envy, not particularly intellectual, decisive, mature, not very introspective, fits in most places, traditional, keeps emotions under control, not very artistic, self-expressive, values society, attracted to prestige, keep up an appearance, trusting,  realist, fearless, confident,, competitive, doubt free, not afraid to draw attention to self, demanding, not easily hurt, not known for generosity, speaks up regardless of consequences, able to stand up for self, accomplishes work on time, rarely compliments people, productive, hardworking, impatient, good at sports, makes plans and sticks with them, prefer to lead, controlling, aggressive, not easily frustrated, not embarrassed by praise, energetic opinionated, more dominant than submissive",
        "favoured_careers": "Business consultant, business owner, fashion merchandiser, fashion industry, sales manager, manager, executive assistant, real estate agent, sports management, executive, advertising executive, marketing manager, office manager, supervisor, event planner, sales associate, business manager, choreographer, fashion editor, athletic or fitness trainer, entrepreneur, public relations specialist, advertising, real estate investor, event coordinator, marketing specialist, athlete, buyer, business administrator, marketing director, small business owner, investment banker, real estate professional, wedding planner, financial manager, project manager, public relations manager",
        "disFavoured_career": "Philosopher, author, novelist, philosophy professor, scientist, research scientist, astronomer, college professor, freelance writer, historian, psychoanalyst, anthropologist, scholar, archeologist, biologist, nonprofit sector, book editor, archeology, research psychologist, researcher, theologian, environmental scientist, museum curator, Egyptologist, genetics researcher, clinical psychologist, artist, research assistant, psychotherapist, wildlife biologist"
    },
    {
        "title": "SLOEN",
        "description": "Dislikes science fiction, materialistic, likes compliments, motivated, not very introspective, uncomfortable with imperfection, very attentive to the social hierarchy, prone to envy, sees friendships as alliances, does not like to go days without speaking to anyone, self-absorbed, more articulate than artistic, prefers instant gratification, not very intellectual, more logical than abstract, defensive, wants to be an authority figure, thinks loyalty is more important than individuality, keeps up an appearance, quick tempered, feels best when admired, wants things done their way, emotional, feels best when others find them physically attractive, prefers to stick with things they know, feels you have to be tough on people to get things done, prefers organized to unpredictable, perfectionist, controlling, demanding, values rules and regulations, not very interested in theoretical discussions, driven to impress others",
        "favoured_careers": "Fashion merchandiser, fashion industry, model, makeup artist, wedding planner, fashion editor, beautician, event planner, cosmetologist, interior decorator/designer, business manager, real estate agent, advertising, public relations manager, office manager, actor, magazine editor, salesperson, entertainer",
        "disFavoured_career": "Scientist, philosopher, philosophy professor, astronaut, research scientist, astronomer, archeologist, scholar, game designer, researcher, theologian, video game designer, biotechnology, pilot, historian, novelist, strategist, anthropologist, history professor, computer scientist, environmentalist, scientist, wildlife biologist, microbiologist, fighter pilot, professor, computer engineer, chemist, egyptologist, biochemist, aerospace engineer, military "
    },
    {
        "title": "SLOEI",
        "description": "Demanding, controlling, aggressive, retaliatory, does not forgive easily, opinionated, domineering, does not accept what others say, believes that appearances are important, likes to be the center of attention, not patient with people who annoy them, easily annoyed, quick to judge others, preoccupied with self, show off, not good at sports, frequently pursues impressive achievements, takes charge, competitive, frustrated and angry when people don't live up to expectations, not on good terms with everyone, second place rarely feels good enough to them, antagonistic, able to stand up for self, acts superior to others, hard to satisfy, bothered by disorder, impatient, becomes aggressive when they feel hurt, decisive, abrupt, impulsive, finishes most things they start, desires some level of fame in their community, unable to control cravings, acts out frustrations on others, easily frustrated, can become overwhelmed by events, does not readily admit mistakes, moody",
        "favoured_careers": "Scholar, college professor, politician, university professor, political analyst, diplomat, philosopher, ambassador, reporter, academic, corporate lawyer, political scientist, news anchor, lawyer, international relations specialist, international business author, entrepreneur, executive, journalist, psychoanalyst, judge, english professor, financial analyst, editor, project manager, researcher, broadcast journalist, analyst, marketing director, publicist, business consultant, consultant, manager, policy analyst, business manager, performer, business administrator, entertainment lawyer, strategist, psychotherapist, investment banker, advertising executive, travel writer, performing arts, financial planner, media industry, fashion editor, publisher, screenwriter, magazine editor, broadcaster, freelance writer, sociologist, genetics researcher, marketing specialist, management consultant, technical writer, psychiatrist, actor, economist, geneticist, businessman, research scientist, art historian",
        "disFavoured_career": "Childcare worker, nurse, firefighter, soldier, physical therapist, construction business, police officer, fitness trainer"
    },
    {
        "title": "SLUEI",
        "description": "Prone to addiction, often late, impatient, discontent, negative, opinionated, acts without thinking, preoccupied with self, easily frustrated, not that interested in others, act at the expense of others, becomes aggressive when they feel hurt, acts wild and crazy, frustrated and angry when people don't live up to expectations, slow to forgive, takes charge, does not behave in way that is acceptable to society, pessimistic, not usually happy, not calm in crisis, does not accomplish work on time, spontaneous, not on good terms with everyone, demanding, misbehaved, improper, avoids responsibilities, not willing to let things rest, acts out frustrations on others, has a need to maintain high levels of excitement, rarely prepared, often bored while working, aggressive, asks questions nobody else does, hard to reason with, likes to be the center of attention, acts without planning, retaliatory, asks many questions, quick to correct others, more pleasure seeking than responsible, not hard working, disorganized, loses things, unable to control cravings",
        "favoured_careers": "Author, freelance writer, philosopher, playwriter, novelist, performing arts, poet, screenwriter, film director, philosophy professor, actor, entertainer, filmmaker, film producer, creative director, theater industry, music journalist,  broadcast journalist, activist,  art director, songwriter, travel writer, english professor, editor, arts and media industry, egyptologist,  psychoanalyst, film critic, diplomat, journalist, freelance artist, dictator, college professor, comedian, psychotherapist, photojournalist, tv producer, music producer, magazine editor, news anchor, political analyst, book editor, sociologist, political scientist, theologian, archeologist, clinical psychologist, international relations specialist, advertising executive",
        "disFavoured_career": "Childcare worker, nurse, office worker, administrative support, office manager, sports management, medical assistant, executive assistant, pediatric nurse, secretary, accountant, athletic trainer, physician assistant, personal assistant, early childhood educator"
    },
    {
        "title": "SLUEN",
        "description": "Quick tempered, thinks winning is no fun unless people know you have one, does not keep emotions under control, prefers to do things with others, emotional, not very intellectual, prone to envy, comes alive in night life activities, would not be happy if poor, prefers instant gratification, easily hurt, not very introspective, wants to be famous, seductive, does not readily admit mistakes, more comfortable when things are imperfect, would rather spend than save, feels best when others find them physically attractive, materialistic, finds ordinary tasks draining, wants things done their way, overwhelmed by unpleasant feelings frequently, spontaneous, easily frustrated, impatient, low self-confidence, prone to jealousy, misbehaves, improper, acts out frustrations on others, opinionated, not generous, more pleasure seeking than responsible, ambivalent regarding the suffering of others, hard to reason with, does not accept what others say, does not value solitude, unpredictable",
        "favoured_careers": "Actor fashion industry, beautician, fashion designer, performer, fashion merchandiser, entertainment industry, fashion editor, television industry, choreographer, makeup artist, news anchor, costume designer, film director, music industry, interior designer, broadcast journalist, reporter, stage manager, film critic, event coordinator, advertiser, flight attendant, producer,  fundraiser, event planner, musician, restaurant owner, career in sports management, entertainment lawyer, photo journalist, creative director, songwriter, artist, art director, music educator, advertising executive, ",
        "disFavoured_career": "research scientist, academic, scientist, researcher, analyst, scholar, strategist, college professor, biotechnology, biochemist, government employee, non profit sector, environmental scientist, mathematician, research psychologist, geneticist"
    },
    {
        "title": "SCUEN",
        "description": "Not easily hurt, spends more time in group activities than solitary activities, comes alive at parties and in crowds, not mystical, not big on science fiction, does not care if people think not very introspective, fits in most places, likes change, trusting, not very intellectual, underachiever, not easily moved to tears, thrill seeker, does not like to compromise, not apologetic, avoids difficult reading material, relaxed most of the time, likes danger, not punctual, impatient, not upset by the misfortunes of strangers, believes in an eye for an eye, not detail oriented, uninterested in the needs of others, avoids responsibilities, not known for generosity, dominant aggressive, willing to take risks, not embarrassed easily, not passionate about improving the world, show off, socially comfortable, acts as they please, not bothered by disorder",
        "favoured_careers": "Entertainer, career in entertainment industry, comedian, actor, model, career in television industry, performer, tv producer, movie director, advertiser, television producer, race car driver, fashion editor, career in the media industry, athlete, sports management, broadcaster, movie producer,  salesman, filmmaker, career in the theater industry, film editor, career in the fashion industry, costume designer, news anchor, advertising executive, athletic trainer, career in the arts and media, creative director, broadcast journalist, songwriter, fashion designer, photographer, editor, film critic, video editor, personal trainer, career in the performing arts, sales associate, sales manager",
        "disFavoured_career": "Research scientist, academic, scientist, researcher, analyst, scholar, strategist, college professor, biotechnology, biochemist, government employee, nonprofit sector, environmental scientist, mathematician, research psychologist, geneticist"
    },
    {
        "title": "SCUEI",
        "description": "Not afraid of doing the wrong things, does not value rules and regulations, prefers unpredictable to organized, does not accomplish work on time, needs to maintain high levels of excitement, not afraid to draw attention to self, more pleasure seeking than responsible, not bothered by disorder, retaliatory, unpredictable, asks questions that nobody else does, often does not know what they are doing, spontaneous, first to act, not easily hurt, not apprehensive about new encounters, does not readily admit mistakes, not a perfectionist, not apologetic, disorganized, socially comfortable, outgoing, calm in crisis, fearless, good at getting people to have fun, opinionated, not easily moved to tears, adventurous, unconventional, aggressive, often late, high energy level, likes the spotlight, ambivalent about the needs of others, worry free, acts without thinking or planning, bad at saving money, selfish",
        "favoured_careers": "Philosopher, philosophy professor, film director, comedian, freelance writer, filmmaker, ambassador, movie director, screenwriter, diplomat, movie producer, astronaut, cinematographer, novelist, author, entertainer, playwriter, politician, performer, creative director, radio broadcaster, freelance artist, actor, media industry, broadcast journalist, egyptologist, art director, performing arts, film critic, political analyst, fighter pilot, theater industry, tv producer, travel writer, strategist, photojournalist, reporter, scientist, film editor, broadcaster, college professor, astronomer, pilot, news anchor, activist, anthropologist, psychoanalyst, sound engineer, entrepreneur, mercenary, artist, political scientist",
        "disFavoured_career": "Childcare worker, pediatric nurse, health care worker, wedding planner, administrative assistant, office worker, school teacher"
    }
]
