[
    { "question_no": 1, "test_id": 4, "option": "Disagree", "option_second": "Slightly disagree", "option_third": "Neutral", "option_fourth": "Slightly agree", "option_five": "Agree", "question": "Am the life of the party." },
    { "question_no": 2, "test_id": 4, "option": "Disagree", "option_second": "Slightly disagree", "option_third": "Neutral", "option_fourth": "Slightly agree", "option_five": "Agree", "question": "Feel little concern for others." },
    { "question_no": 3, "test_id": 4, "option": "Disagree", "option_second": "Slightly disagree", "option_third": "Neutral", "option_fourth": "Slightly agree", "option_five": "Agree", "question": "Am always prepared." },
    { "question_no": 4, "test_id": 4, "option": "Disagree", "option_second": "Slightly disagree", "option_third": "Neutral", "option_fourth": "Slightly agree", "option_five": "Agree", "question": "Get stressed out easily." },
    { "question_no": 5, "test_id": 4, "option": "Disagree", "option_second": "Slightly disagree", "option_third": "Neutral", "option_fourth": "Slightly agree", "option_five": "Agree", "question": "Have a rich vocabulary." },
    { "question_no": 6, "test_id": 4, "option": "Disagree", "option_second": "Slightly disagree", "option_third": "Neutral", "option_fourth": "Slightly agree", "option_five": "Agree", "question": "Don't talk a lot." },
    { "question_no": 7, "test_id": 4, "option": "Disagree", "option_second": "Slightly disagree", "option_third": "Neutral", "option_fourth": "Slightly agree", "option_five": "Agree", "question": "Am interested in people." },
    { "question_no": 8, "test_id": 4, "option": "Disagree", "option_second": "Slightly disagree", "option_third": "Neutral", "option_fourth": "Slightly agree", "option_five": "Agree", "question": "Leave my belongings around." },
    { "question_no": 9, "test_id": 4, "option": "Disagree", "option_second": "Slightly disagree", "option_third": "Neutral", "option_fourth": "Slightly agree", "option_five": "Agree", "question": "Am relaxed most of the time." },
    { "question_no": 10, "test_id": 4, "option": "Disagree", "option_second": "Slightly disagree", "option_third": "Neutral", "option_fourth": "Slightly agree", "option_five": "Agree", "question": "Have difficulty understanding abstract ideas." },
    { "question_no": 11, "test_id": 4, "option": "Disagree", "option_second": "Slightly disagree", "option_third": "Neutral", "option_fourth": "Slightly agree", "option_five": "Agree", "question": "Feel comfortable around people." },
    { "question_no": 12, "test_id": 4, "option": "Disagree", "option_second": "Slightly disagree", "option_third": "Neutral", "option_fourth": "Slightly agree", "option_five": "Agree", "question": "Insult people." },
    { "question_no": 13, "test_id": 4, "option": "Disagree", "option_second": "Slightly disagree", "option_third": "Neutral", "option_fourth": "Slightly agree", "option_five": "Agree", "question": "Pay attention to details." },
    { "question_no": 14, "test_id": 4, "option": "Disagree", "option_second": "Slightly disagree", "option_third": "Neutral", "option_fourth": "Slightly agree", "option_five": "Agree", "question": "Worry about things." },
    { "question_no": 15, "test_id": 4, "option": "Disagree", "option_second": "Slightly disagree", "option_third": "Neutral", "option_fourth": "Slightly agree", "option_five": "Agree", "question": "Have a vivid imagination." },
    { "question_no": 16, "test_id": 4, "option": "Disagree", "option_second": "Slightly disagree", "option_third": "Neutral", "option_fourth": "Slightly agree", "option_five": "Agree", "question": "Keep in the background." },
    { "question_no": 17, "test_id": 4, "option": "Disagree", "option_second": "Slightly disagree", "option_third": "Neutral", "option_fourth": "Slightly agree", "option_five": "Agree", "question": "Sympathize with others' feelings." },
    { "question_no": 18, "test_id": 4, "option": "Disagree", "option_second": "Slightly disagree", "option_third": "Neutral", "option_fourth": "Slightly agree", "option_five": "Agree", "question": "Make a mess of things." },
    { "question_no": 19, "test_id": 4, "option": "Disagree", "option_second": "Slightly disagree", "option_third": "Neutral", "option_fourth": "Slightly agree", "option_five": "Agree", "question": "Seldom feel blue." },
    { "question_no": 20, "test_id": 4, "option": "Disagree", "option_second": "Slightly disagree", "option_third": "Neutral", "option_fourth": "Slightly agree", "option_five": "Agree", "question": "Am not interested in abstract ideas." },
    { "question_no": 21, "test_id": 4, "option": "Disagree", "option_second": "Slightly disagree", "option_third": "Neutral", "option_fourth": "Slightly agree", "option_five": "Agree", "question": "Start conversations." },
    { "question_no": 22, "test_id": 4, "option": "Disagree", "option_second": "Slightly disagree", "option_third": "Neutral", "option_fourth": "Slightly agree", "option_five": "Agree", "question": "Am not interested in other people's problems." },
    { "question_no": 23, "test_id": 4, "option": "Disagree", "option_second": "Slightly disagree", "option_third": "Neutral", "option_fourth": "Slightly agree", "option_five": "Agree", "question": "Get chores done right away." },
    { "question_no": 24, "test_id": 4, "option": "Disagree", "option_second": "Slightly disagree", "option_third": "Neutral", "option_fourth": "Slightly agree", "option_five": "Agree", "question": "Am easily disturbed." },
    { "question_no": 25, "test_id": 4, "option": "Disagree", "option_second": "Slightly disagree", "option_third": "Neutral", "option_fourth": "Slightly agree", "option_five": "Agree", "question": "Have excellent ideas." },
    { "question_no": 26, "test_id": 4, "option": "Disagree", "option_second": "Slightly disagree", "option_third": "Neutral", "option_fourth": "Slightly agree", "option_five": "Agree", "question": "Have little to say." },
    { "question_no": 27, "test_id": 4, "option": "Disagree", "option_second": "Slightly disagree", "option_third": "Neutral", "option_fourth": "Slightly agree", "option_five": "Agree", "question": "Have a soft heart." },
    { "question_no": 28, "test_id": 4, "option": "Disagree", "option_second": "Slightly disagree", "option_third": "Neutral", "option_fourth": "Slightly agree", "option_five": "Agree", "question": "Often forget to put things back in their proper place." },
    { "question_no": 29, "test_id": 4, "option": "Disagree", "option_second": "Slightly disagree", "option_third": "Neutral", "option_fourth": "Slightly agree", "option_five": "Agree", "question": "Get upset easily." },
    { "question_no": 30, "test_id": 4, "option": "Disagree", "option_second": "Slightly disagree", "option_third": "Neutral", "option_fourth": "Slightly agree", "option_five": "Agree", "question": "Do not have a good imagination." },
    { "question_no": 31, "test_id": 4, "option": "Disagree", "option_second": "Slightly disagree", "option_third": "Neutral", "option_fourth": "Slightly agree", "option_five": "Agree", "question": "Talk to a lot of different people at parties." },
    { "question_no": 32, "test_id": 4, "option": "Disagree", "option_second": "Slightly disagree", "option_third": "Neutral", "option_fourth": "Slightly agree", "option_five": "Agree", "question": "Am not really interested in others." },
    { "question_no": 33, "test_id": 4, "option": "Disagree", "option_second": "Slightly disagree", "option_third": "Neutral", "option_fourth": "Slightly agree", "option_five": "Agree", "question": "Like order." },
    { "question_no": 34, "test_id": 4, "option": "Disagree", "option_second": "Slightly disagree", "option_third": "Neutral", "option_fourth": "Slightly agree", "option_five": "Agree", "question": "Change my mood a lot." },
    { "question_no": 35, "test_id": 4, "option": "Disagree", "option_second": "Slightly disagree", "option_third": "Neutral", "option_fourth": "Slightly agree", "option_five": "Agree", "question": "Am quick to understand things." },
    { "question_no": 36, "test_id": 4, "option": "Disagree", "option_second": "Slightly disagree", "option_third": "Neutral", "option_fourth": "Slightly agree", "option_five": "Agree", "question": "Don't like to draw attention to myself." },
    { "question_no": 37, "test_id": 4, "option": "Disagree", "option_second": "Slightly disagree", "option_third": "Neutral", "option_fourth": "Slightly agree", "option_five": "Agree", "question": "Take time out for others." },
    { "question_no": 38, "test_id": 4, "option": "Disagree", "option_second": "Slightly disagree", "option_third": "Neutral", "option_fourth": "Slightly agree", "option_five": "Agree", "question": "Shirk my duties." },
    { "question_no": 39, "test_id": 4, "option": "Disagree", "option_second": "Slightly disagree", "option_third": "Neutral", "option_fourth": "Slightly agree", "option_five": "Agree", "question": "Have frequent mood swings." },
    { "question_no": 40, "test_id": 4, "option": "Disagree", "option_second": "Slightly disagree", "option_third": "Neutral", "option_fourth": "Slightly agree", "option_five": "Agree", "question": "Use difficult words." },
    { "question_no": 41, "test_id": 4, "option": "Disagree", "option_second": "Slightly disagree", "option_third": "Neutral", "option_fourth": "Slightly agree", "option_five": "Agree", "question": "Don't mind being the center of attention." },
    { "question_no": 42, "test_id": 4, "option": "Disagree", "option_second": "Slightly disagree", "option_third": "Neutral", "option_fourth": "Slightly agree", "option_five": "Agree", "question": "Feel others' emotions." },
    { "question_no": 43, "test_id": 4, "option": "Disagree", "option_second": "Slightly disagree", "option_third": "Neutral", "option_fourth": "Slightly agree", "option_five": "Agree", "question": "Follow a schedule." },
    { "question_no": 44, "test_id": 4, "option": "Disagree", "option_second": "Slightly disagree", "option_third": "Neutral", "option_fourth": "Slightly agree", "option_five": "Agree", "question": "Get irritated easily." },
    { "question_no": 45, "test_id": 4, "option": "Disagree", "option_second": "Slightly disagree", "option_third": "Neutral", "option_fourth": "Slightly agree", "option_five": "Agree", "question": "Spend time reflecting on things." },
    { "question_no": 46, "test_id": 4, "option": "Disagree", "option_second": "Slightly disagree", "option_third": "Neutral", "option_fourth": "Slightly agree", "option_five": "Agree", "question": "Am quiet around strangers." },
    { "question_no": 47, "test_id": 4, "option": "Disagree", "option_second": "Slightly disagree", "option_third": "Neutral", "option_fourth": "Slightly agree", "option_five": "Agree", "question": "Make people feel at ease." },
    { "question_no": 48, "test_id": 4, "option": "Disagree", "option_second": "Slightly disagree", "option_third": "Neutral", "option_fourth": "Slightly agree", "option_five": "Agree", "question": "Am exacting in my work." },
    { "question_no": 49, "test_id": 4, "option": "Disagree", "option_second": "Slightly disagree", "option_third": "Neutral", "option_fourth": "Slightly agree", "option_five": "Agree", "question": "Often feel blue." },
    { "question_no": 50, "test_id": 4, "option": "Disagree", "option_second": "Slightly disagree", "option_third": "Neutral", "option_fourth": "Slightly agree", "option_five": "Agree", "question": "Am full of ideas." }
]
