<svg xmlns="http://www.w3.org/2000/svg" width="600.222" height="581.444" viewBox="0 0 600.222 581.444">
  <g id="Group_157" data-name="Group 157" transform="translate(-351.3 -102.93)">
    <g id="Group_155" data-name="Group 155" transform="translate(351.8 103.43)">
      <g id="Group_153" data-name="Group 153" transform="translate(0 26.318)">
        <path id="Path_454" data-name="Path 454" d="M732.323,321.919l-4.13,4.034.976,5.7-5.123-2.689-5.123,2.689.977-5.7-4.13-4.034,5.715-.832,2.561-5.187,2.561,5.187Z" transform="translate(-133.101 -2.081)" fill="#729cc4"/>
        <path id="Path_455" data-name="Path 455" d="M783.013,149.716H601.81a11.048,11.048,0,0,1,11.046-11.046H771.966A11.048,11.048,0,0,1,783.013,149.716Z" transform="translate(-201.576 -108.574)" fill="#729cc4"/>
        <path id="Path_456" data-name="Path 456" d="M850.122,195.782a19.624,19.624,0,0,1,2.033,8.757H404.84a19.909,19.909,0,0,1,19.9-19.9H832.257A19.874,19.874,0,0,1,850.122,195.782Z" transform="translate(-319.93 -80.952)" fill="#729cc4"/>
        <path id="Path_457" data-name="Path 457" d="M585.941,316.333c6.644-7.684,15.08-13.079,25.79-13.832a26.926,26.926,0,0,1,15.288,3.778c34.323,19.419,56.575,105.77,56.575,105.77v.368H629.949a16.547,16.547,0,0,0-15.8,11.622l-3.746-1.057c.144-.528.288-1.041.432-1.553-14.456-14.408-29.808-28.688-48.714-36.324l.256-2.065S566.026,339.4,585.941,316.333Z" transform="translate(-225.425 -10.167)" fill="#729cc4"/>
        <path id="Path_458" data-name="Path 458" d="M545.45,264.042l-.032.08a53.159,53.159,0,0,0-.929,16.921l-.5.048a27.148,27.148,0,0,1-14.7-46.761,37.021,37.021,0,0,1,14.248-7.78c9.221-2.882,19-3.362,28.48-5.219,17.081-3.33,33.922-11.174,51.116-8.565,19.787,3.01,35.619,20.283,40.246,39.734,4.626,19.467-.656,40.342-10.966,57.487-4.514,7.524-9.493,13.88-11.366,22.444l-24.525-22.6,8.373-3.442a14.762,14.762,0,0,0-9.461-27.9l-7.78,2.081a74.664,74.664,0,0,0,.32,16.153,61.533,61.533,0,0,1-16.361-31.6s-9.893,4.21-27.967,2.673A72.71,72.71,0,0,1,545.45,264.042Z" transform="translate(-250.313 -64.365)"/>
        <path id="Path_459" data-name="Path 459" d="M599.665,377.74l3.746,1.057a13.579,13.579,0,0,0-.4,1.537,15.852,15.852,0,0,0-.352,3.394v67.141H579.99C581.623,444.672,592.429,403.834,599.665,377.74Z" transform="translate(-214.687 35.077)" fill="#729cc4"/>
        <path id="Path_460" data-name="Path 460" d="M584.271,295.67l-8.148,15.3L572.04,301Z" transform="translate(-219.464 -14.237)" fill="#231f20"/>
        <path id="Path_461" data-name="Path 461" d="M572.04,299l4.082,9.973-.08.144Z" transform="translate(-219.464 -12.236)" fill="#231f20"/>
        <path id="Path_462" data-name="Path 462" d="M547.948,263.23a4.418,4.418,0,1,1-4.418,4.418A4.414,4.414,0,0,1,547.948,263.23Z" transform="translate(-236.595 -33.729)" fill="#231f20"/>
        <path id="Path_463" data-name="Path 463" d="M524.93,276.42l9.189-4.29,36.228,90.113,3.538,8.789-.016.016c-5.379-2.9-14.632-7.764-21.2-8.036-9.4-.384-48.122-1.1-48.939,3.874-.832,4.979,20.155,4.691,25.406,4.979,5.251.272,21,4.418,21,4.418s-25.422-3.042-32.61-1.665c-7.172,1.377-17.674,3.874-17.113,6.355.544,2.481,21.82.544,24.862,1.377,3.026.832,21.82,4.418,21.82,4.418s-23.485-.544-28.736.56-18.234,4.418-17.946,7.172c.272,2.77,22.092-1.377,26.51-.544S544.605,397,544.605,397s-18.506.832-24.3,2.209-12.711,3.314-11.878,5.251c.832,1.921,37.012.816,37.012.816l22.108,8.02-75.689,31.217L436.05,317.995Zm26.863,54.558L530.245,281.8l-84.526,39.509,20.171,45.849Z" transform="translate(-301.177 -28.381)" fill="#729cc4"/>
        <path id="Path_464" data-name="Path 464" d="M522.589,162.769l-4.146,4.034.977,5.7-5.107-2.689L509.19,172.5l.977-5.7-4.146-4.034,5.731-.832,2.561-5.187,2.561,5.187Z" transform="translate(-259.134 -97.71)" fill="#729cc4"/>
        <path id="Path_465" data-name="Path 465" d="M423.611,368.994a83.18,83.18,0,1,1-33.49,26.526A82.631,82.631,0,0,1,423.611,368.994Zm100.807,76.281a67.653,67.653,0,1,0-67.653,67.653A67.652,67.652,0,0,0,524.418,445.275Z" transform="translate(-338.701 25.685)" fill="#729cc4"/>
        <path id="Path_466" data-name="Path 466" d="M469.033,119.87a5.131,5.131,0,1,1-5.123,5.139A5.131,5.131,0,0,1,469.033,119.87Z" transform="translate(-284.436 -119.87)" fill="#729cc4"/>
        <path id="Path_467" data-name="Path 467" d="M453.843,119.87a5.131,5.131,0,1,1-5.123,5.139A5.131,5.131,0,0,1,453.843,119.87Z" transform="translate(-293.564 -119.87)" fill="#729cc4"/>
        <path id="Path_468" data-name="Path 468" d="M471.118,429.514l-59.088,40.6V388.9Z" transform="translate(-315.61 41.782)"/>
        <path id="Path_469" data-name="Path 469" d="M438.653,119.87a5.131,5.131,0,1,1-5.123,5.139A5.131,5.131,0,0,1,438.653,119.87Z" transform="translate(-302.691 -119.87)" fill="#729cc4"/>
        <path id="Path_470" data-name="Path 470" d="M368.369,141.829l-4.146,4.034.977,5.7-5.107-2.689-5.123,2.689.977-5.7-4.146-4.034,5.731-.832,2.561-5.187L362.638,141Z" transform="translate(-351.8 -110.292)" fill="#729cc4"/>
      </g>
      <g id="Group_154" data-name="Group 154">
        <line id="Line_19" data-name="Line 19" x2="60.545" transform="translate(496.046 521.772)" fill="none" stroke="#231f20" stroke-miterlimit="10" stroke-width="1"/>
        <line id="Line_20" data-name="Line 20" x2="60.545" transform="translate(496.046 530.417)" fill="none" stroke="#231f20" stroke-miterlimit="10" stroke-width="1"/>
        <path id="Path_471" data-name="Path 471" d="M775.881,384.3a15.849,15.849,0,0,1,.352,3.394V489.348a16.558,16.558,0,0,1-16.553,16.569H610.7a16.558,16.558,0,0,1-16.553-16.569V387.693a15.853,15.853,0,0,1,.352-3.394,13.582,13.582,0,0,1,.4-1.537,16.547,16.547,0,0,1,15.8-11.622H759.68A16.542,16.542,0,0,1,775.881,384.3Z" transform="translate(-206.179 57.429)" fill="none" stroke="#231f20" stroke-miterlimit="10" stroke-width="1"/>
        <path id="Path_472" data-name="Path 472" d="M776,379.36H594.38" transform="translate(-206.041 62.368)" fill="none" stroke="#231f20" stroke-miterlimit="10" stroke-width="1"/>
        <line id="Line_21" data-name="Line 21" x2="60.545" transform="translate(496.046 462.043)" fill="none" stroke="#231f20" stroke-miterlimit="10" stroke-width="1"/>
        <line id="Line_22" data-name="Line 22" x2="60.545" transform="translate(496.046 470.688)" fill="none" stroke="#231f20" stroke-miterlimit="10" stroke-width="1"/>
        <line id="Line_23" data-name="Line 23" x2="60.545" transform="translate(496.046 479.349)" fill="none" stroke="#231f20" stroke-miterlimit="10" stroke-width="1"/>
        <line id="Line_24" data-name="Line 24" x2="60.545" transform="translate(496.046 487.993)" fill="none" stroke="#231f20" stroke-miterlimit="10" stroke-width="1"/>
        <line id="Line_25" data-name="Line 25" x2="60.545" transform="translate(496.046 496.638)" fill="none" stroke="#231f20" stroke-miterlimit="10" stroke-width="1"/>
        <line id="Line_26" data-name="Line 26" x2="60.545" transform="translate(496.046 505.283)" fill="none" stroke="#231f20" stroke-miterlimit="10" stroke-width="1"/>
        <line id="Line_27" data-name="Line 27" x2="60.545" transform="translate(496.046 513.944)" fill="none" stroke="#231f20" stroke-miterlimit="10" stroke-width="1"/>
        <line id="Line_28" data-name="Line 28" x2="60.545" transform="translate(496.046 522.588)" fill="none" stroke="#231f20" stroke-miterlimit="10" stroke-width="1"/>
        <path id="Path_473" data-name="Path 473" d="M645.34,398.905a26.37,26.37,0,0,1,9.621,20.379c0,.7-.032,1.409-.1,2.1a26.414,26.414,0,1,1-9.525-22.476Z" transform="translate(-201.402 70.486)" fill="none" stroke="#231f20" stroke-miterlimit="10" stroke-width="1"/>
        <path id="Path_474" data-name="Path 474" d="M632.715,398.905a26.452,26.452,0,1,1-9.365,23.885,25.273,25.273,0,0,1-.24-3.506A26.407,26.407,0,0,1,632.715,398.905Z" transform="translate(-188.778 70.486)" fill="none" stroke="#231f20" stroke-miterlimit="10" stroke-width="1"/>
        <path id="Path_475" data-name="Path 475" d="M666.415,432.9a25.043,25.043,0,0,1,.24,3.49,26.422,26.422,0,1,1-52.845,0q0-1.033.1-2.065a26.383,26.383,0,0,1,26.318-24.349,25.93,25.93,0,0,1,7.6,1.121A26.387,26.387,0,0,1,666.415,432.9Z" transform="translate(-194.366 80.767)" fill="none" stroke="#231f20" stroke-miterlimit="10" stroke-width="1"/>
        <path id="Path_476" data-name="Path 476" d="M423.611,368.994a83.18,83.18,0,1,1-33.49,26.526A82.631,82.631,0,0,1,423.611,368.994Z" transform="translate(-338.701 52.003)" fill="none" stroke="#000" stroke-linecap="round" stroke-linejoin="round" stroke-width="1"/>
        <circle id="Ellipse_18" data-name="Ellipse 18" cx="67.653" cy="67.653" r="67.653" transform="translate(50.411 429.626)" fill="none" stroke="#000" stroke-linecap="round" stroke-linejoin="round" stroke-width="1"/>
        <path id="Path_477" data-name="Path 477" d="M471.118,429.514l-59.088,40.6V388.9Z" transform="translate(-315.61 68.101)" fill="none" stroke="#000" stroke-linecap="round" stroke-linejoin="round" stroke-width="1"/>
        <path id="Path_478" data-name="Path 478" d="M404.84,476.959V204.539a19.909,19.909,0,0,1,19.9-19.9H832.257a19.874,19.874,0,0,1,17.866,11.142,19.624,19.624,0,0,1,2.033,8.757V483.09" transform="translate(-319.93 -54.633)" fill="none" stroke="#000" stroke-linecap="round" stroke-linejoin="round" stroke-width="1"/>
        <path id="Path_479" data-name="Path 479" d="M476.79,423.42H664.844" transform="translate(-276.697 88.843)" fill="none" stroke="#000" stroke-linecap="round" stroke-linejoin="round" stroke-width="1"/>
        <line id="Line_29" data-name="Line 29" x2="447.315" transform="translate(84.91 149.906)" fill="none" stroke="#000" stroke-linecap="round" stroke-linejoin="round" stroke-width="1"/>
        <path id="Path_480" data-name="Path 480" d="M601.81,212.166v-62.45a11.048,11.048,0,0,1,11.046-11.046H771.966a11.048,11.048,0,0,1,11.046,11.046V279.1a11.048,11.048,0,0,1-11.046,11.046H733.081" transform="translate(-201.576 -82.255)" fill="none" stroke="#000" stroke-linecap="round" stroke-linejoin="round" stroke-width="1"/>
        <line id="Line_30" data-name="Line 30" x1="181.203" transform="translate(400.234 67.461)" fill="none" stroke="#000" stroke-linecap="round" stroke-linejoin="round" stroke-width="1"/>
        <line id="Line_31" data-name="Line 31" x2="154.596" transform="translate(412.576 79.98)" fill="none" stroke="#000" stroke-linecap="round" stroke-linejoin="round" stroke-width="1"/>
        <line id="Line_32" data-name="Line 32" x2="154.596" transform="translate(412.576 90.177)" fill="none" stroke="#000" stroke-linecap="round" stroke-linejoin="round" stroke-width="1"/>
        <line id="Line_33" data-name="Line 33" x2="154.596" transform="translate(412.576 100.375)" fill="none" stroke="#000" stroke-linecap="round" stroke-linejoin="round" stroke-width="1"/>
        <line id="Line_34" data-name="Line 34" x2="154.596" transform="translate(412.576 110.572)" fill="none" stroke="#000" stroke-linecap="round" stroke-linejoin="round" stroke-width="1"/>
        <line id="Line_35" data-name="Line 35" x2="154.596" transform="translate(412.576 120.754)" fill="none" stroke="#000" stroke-linecap="round" stroke-linejoin="round" stroke-width="1"/>
        <line id="Line_36" data-name="Line 36" x2="57.391" transform="translate(509.717 129.943)" fill="none" stroke="#000" stroke-linecap="round" stroke-linejoin="round" stroke-width="1"/>
        <path id="Path_481" data-name="Path 481" d="M682.93,191.6h37.076" transform="translate(-152.834 -50.451)" fill="none" stroke="#000" stroke-linecap="round" stroke-linejoin="round" stroke-width="1"/>
        <path id="Path_482" data-name="Path 482" d="M684.25,197.97h34.963" transform="translate(-152.04 -46.624)" fill="none" stroke="#000" stroke-linecap="round" stroke-linejoin="round" stroke-width="1"/>
        <path id="Path_483" data-name="Path 483" d="M684.25,204.34h34.963" transform="translate(-152.04 -42.796)" fill="none" stroke="#000" stroke-linecap="round" stroke-linejoin="round" stroke-width="1"/>
        <path id="Path_484" data-name="Path 484" d="M684.25,210.71h34.963" transform="translate(-152.04 -38.969)" fill="none" stroke="#000" stroke-linecap="round" stroke-linejoin="round" stroke-width="1"/>
        <path id="Path_485" data-name="Path 485" d="M684.25,217.07h34.963" transform="translate(-152.04 -35.147)" fill="none" stroke="#000" stroke-linecap="round" stroke-linejoin="round" stroke-width="1"/>
        <path id="Path_486" data-name="Path 486" d="M684.25,223.44h34.963" transform="translate(-152.04 -31.319)" fill="none" stroke="#000" stroke-linecap="round" stroke-linejoin="round" stroke-width="1"/>
        <path id="Path_487" data-name="Path 487" d="M517.276,131.7V116.253a12.831,12.831,0,0,0-12.823-12.823H435.007A12.817,12.817,0,0,0,422.2,116.253V151.5a12.8,12.8,0,0,0,12.807,12.807h11.958v18.442l18.426-18.442h39.061A12.817,12.817,0,0,0,517.276,151.5Z" transform="translate(-309.499 -103.43)" fill="none" stroke="#000" stroke-linecap="round" stroke-linejoin="round" stroke-width="1"/>
        <path id="Path_488" data-name="Path 488" d="M485.036,150.846V173.9a12.817,12.817,0,0,1-12.807,12.823H460.27v18.426l-18.442-18.426H402.767A12.817,12.817,0,0,1,389.96,173.9V138.647a12.8,12.8,0,0,1,12.807-12.807h38.885" transform="translate(-328.871 -89.964)" fill="none" stroke="#000" stroke-linecap="round" stroke-linejoin="round" stroke-width="1"/>
        <path id="Path_489" data-name="Path 489" d="M674,185.209c-21.18,9.941-46.473,7.172-68.245-1.425C584,175.2,564.819,161.308,545.113,148.693c-19.531-12.519-40.374-24.093-63.282-27.567l-.64-.1" transform="translate(-274.053 -92.855)" fill="none" stroke="#231f20" stroke-miterlimit="10" stroke-width="1" stroke-dasharray="2.956"/>
        <path id="Path_490" data-name="Path 490" d="M409.357,143.3c-17.962,13.575-33.282,31.009-42.567,51.516-9.285,20.523-12.215,44.2-6.243,65.892,7.508,27.327,28.319,50.043,33.058,77.994,7.412,43.768-26.4,85.406-24.093,129.735a82.152,82.152,0,0,0,29.136,58.128" transform="translate(-348.412 -79.473)" fill="none" stroke="#231f20" stroke-miterlimit="10" stroke-width="1" stroke-dasharray="2.956"/>
        <path id="Path_491" data-name="Path 491" d="M574.59,305.23l3.858,9.429.24.576" transform="translate(-217.932 17.826)" fill="none" stroke="#231f20" stroke-miterlimit="10" stroke-width="1"/>
        <path id="Path_492" data-name="Path 492" d="M538.79,244.65a53.159,53.159,0,0,0-.929,16.921c.128,1.489.288,2.978.512,4.467.8,5.779,2.145,11.526,3.474,17.177-3.33,7.028-6.788,14.584-10.117,21.612,5.539.464,10.742,1.041,16.281,1.345,2.513,8.292,5.395,16.7,9.525,24.333a19.72,19.72,0,0,0,3.826,5.363c4.5,4.1,11.462,3.6,17.385,2.193a80.821,80.821,0,0,0,17.514-6.4" transform="translate(-243.685 -18.575)" fill="none" stroke="#231f20" stroke-miterlimit="10" stroke-width="1"/>
        <path id="Path_493" data-name="Path 493" d="M543.993,281.091a27.148,27.148,0,0,1-14.7-46.761,37.021,37.021,0,0,1,14.248-7.78c9.221-2.882,19-3.362,28.48-5.219,17.081-3.33,33.922-11.174,51.116-8.565,19.787,3.01,35.619,20.283,40.246,39.734,4.626,19.467-.656,40.342-10.966,57.487-4.514,7.524-9.493,13.88-11.366,22.444l-24.525-22.6,8.373-3.442a14.762,14.762,0,0,0-9.461-27.9l-7.78,2.081a74.664,74.664,0,0,0,.32,16.153,61.533,61.533,0,0,1-16.361-31.6s-9.893,4.21-27.967,2.673a72.71,72.71,0,0,1-18.2-3.746,34.294,34.294,0,0,1-8.132-3.906" transform="translate(-250.313 -38.047)" fill="none" stroke="#231f20" stroke-miterlimit="10" stroke-width="1"/>
        <path id="Path_494" data-name="Path 494" d="M686.1,412.049S663.848,325.7,629.525,306.28a26.926,26.926,0,0,0-15.288-3.778c-10.71.752-19.146,6.147-25.79,13.832-19.915,23.069-23.565,66.708-23.565,66.708l-.256,2.065-6.612,54.125-.064.528" transform="translate(-227.93 16.152)" fill="none" stroke="#231f20" stroke-miterlimit="10" stroke-width="1"/>
        <path id="Path_495" data-name="Path 495" d="M617.961,355.22s-7.8,1.729-12.567,16.457c-1.073,3.314-2.946,9.861-5.219,18.042-.144.512-.288,1.025-.432,1.553C592.507,417.366,581.7,458.2,580.068,464.4c-.128.528-.208.8-.208.8" transform="translate(-214.765 47.863)" fill="none" stroke="#231f20" stroke-miterlimit="10" stroke-width="1"/>
        <path id="Path_496" data-name="Path 496" d="M601.863,454.931s-9.829-14.472-20.283-30.833c-8.164-12.791-16.729-26.735-21.276-35.844-6.692-13.367-11.574-23.5-14.216-29.04a65.575,65.575,0,0,0-5.315-9.189l-2.513-3.65a67.659,67.659,0,0,0-17.594-17.481c-.64-.432-1.281-.849-1.937-1.265" transform="translate(-251.497 31.285)" fill="none" stroke="#231f20" stroke-miterlimit="10" stroke-width="1"/>
        <path id="Path_497" data-name="Path 497" d="M553.974,339.185a27.013,27.013,0,0,1-4.258-2.145c-5.379-2.9-14.632-7.764-21.2-8.036-9.4-.384-48.122-1.1-48.939,3.874-.832,4.979,20.155,4.691,25.406,4.979,5.251.272,21,4.418,21,4.418s-25.422-3.042-32.61-1.665c-7.172,1.377-17.674,3.874-17.113,6.355.544,2.481,21.82.544,24.862,1.377,3.026.832,21.82,4.418,21.82,4.418s-23.485-.544-28.736.56-18.234,4.418-17.946,7.172c.272,2.77,22.092-1.377,26.51-.544s17.674,3.042,17.674,3.042-18.506.832-24.3,2.209-12.711,3.314-11.878,5.251c.832,1.921,37.012.816,37.012.816l22.108,8.02,12.119,4.4,32.05,96.565" transform="translate(-277.024 31.945)" fill="none" stroke="#000" stroke-linecap="round" stroke-linejoin="round" stroke-width="1"/>
        <path id="Path_498" data-name="Path 498" d="M573.885,371.032l-3.538-8.789L534.119,272.13l-9.189,4.29-88.88,41.575,55.806,126.517,75.689-31.217" transform="translate(-301.177 -2.063)" fill="none" stroke="#000" stroke-linecap="round" stroke-linejoin="round" stroke-width="1"/>
        <path id="Path_499" data-name="Path 499" d="M436.05,320.9,519.2,267.3l5.731,12.023.064.144" transform="translate(-301.177 -4.965)" fill="none" stroke="#000" stroke-linecap="round" stroke-linejoin="round" stroke-width="1"/>
        <path id="Path_500" data-name="Path 500" d="M526.616,278.17,442.09,317.679l20.171,45.849,85.9-36.18Z" transform="translate(-297.547 1.566)" fill="none" stroke="#000" stroke-linecap="round" stroke-linejoin="round" stroke-width="1"/>
        <line id="Line_37" data-name="Line 37" x2="10.918" y2="27.935" transform="translate(390.741 294.384)" fill="none" stroke="#231f20" stroke-miterlimit="10" stroke-width="1"/>
        <path id="Path_501" data-name="Path 501" d="M576.122,310.974l8.148-15.3L572.04,301l4,10.117Z" transform="translate(-219.464 12.081)" fill="none" stroke="#231f20" stroke-miterlimit="10" stroke-width="1"/>
        <path id="Path_502" data-name="Path 502" d="M545.06,298.131a19.17,19.17,0,0,0,6.323-6.964,35.146,35.146,0,0,0,3.218-8.917" transform="translate(-235.676 4.018)" fill="none" stroke="#231f20" stroke-miterlimit="10" stroke-width="1"/>
        <path id="Path_503" data-name="Path 503" d="M535.7,259.287a2.608,2.608,0,0,1,.288-.16,22,22,0,0,1,27.1,3.97" transform="translate(-241.3 -11.665)" fill="none" stroke="#231f20" stroke-miterlimit="10" stroke-width="1"/>
        <path id="Path_504" data-name="Path 504" d="M562.06,354.05l.1.048c18.906,7.636,34.259,21.916,48.714,36.324l.128.128" transform="translate(-225.461 47.16)" fill="none" stroke="#231f20" stroke-miterlimit="10" stroke-width="1"/>
        <path id="Path_505" data-name="Path 505" d="M443.776,125.009a5.123,5.123,0,1,1-5.123-5.139A5.117,5.117,0,0,1,443.776,125.009Z" transform="translate(-302.691 -93.552)" fill="none" stroke="#231f20" stroke-miterlimit="10" stroke-width="1"/>
        <path id="Path_506" data-name="Path 506" d="M458.966,125.009a5.123,5.123,0,1,1-5.123-5.139A5.117,5.117,0,0,1,458.966,125.009Z" transform="translate(-293.564 -93.552)" fill="none" stroke="#231f20" stroke-miterlimit="10" stroke-width="1"/>
        <path id="Path_507" data-name="Path 507" d="M474.156,125.009a5.123,5.123,0,1,1-5.123-5.139A5.117,5.117,0,0,1,474.156,125.009Z" transform="translate(-284.436 -93.552)" fill="none" stroke="#231f20" stroke-miterlimit="10" stroke-width="1"/>
        <path id="Path_508" data-name="Path 508" d="M364.62,261.05V294.2" transform="translate(-344.097 -8.721)" fill="none" stroke="#000" stroke-miterlimit="10" stroke-width="1"/>
        <path id="Path_509" data-name="Path 509" d="M354.27,271.41h33.154" transform="translate(-350.316 -2.496)" fill="none" stroke="#000" stroke-miterlimit="10" stroke-width="1"/>
        <path id="Path_510" data-name="Path 510" d="M380.737,264.08l-11.718,11.734L357.3,287.533" transform="translate(-348.495 -6.9)" fill="none" stroke="#000" stroke-miterlimit="10" stroke-width="1"/>
        <path id="Path_511" data-name="Path 511" d="M357.3,264.08l11.718,11.734,11.718,11.718" transform="translate(-348.495 -6.9)" fill="none" stroke="#000" stroke-miterlimit="10" stroke-width="1"/>
        <path id="Path_512" data-name="Path 512" d="M561.37,129.68v33.154" transform="translate(-225.875 -87.657)" fill="none" stroke="#000" stroke-miterlimit="10" stroke-width="1"/>
        <path id="Path_513" data-name="Path 513" d="M551.01,140.03h33.154" transform="translate(-232.1 -81.438)" fill="none" stroke="#000" stroke-miterlimit="10" stroke-width="1"/>
        <path id="Path_514" data-name="Path 514" d="M577.493,132.71l-11.718,11.718L554.04,156.147" transform="translate(-230.28 -85.836)" fill="none" stroke="#000" stroke-miterlimit="10" stroke-width="1"/>
        <path id="Path_515" data-name="Path 515" d="M554.04,132.71l11.734,11.718,11.718,11.718" transform="translate(-230.28 -85.836)" fill="none" stroke="#000" stroke-miterlimit="10" stroke-width="1"/>
        <circle id="Ellipse_19" data-name="Ellipse 19" cx="5.683" cy="5.683" r="5.683" transform="translate(39.782 142.526)" fill="none" stroke="#000" stroke-linecap="round" stroke-linejoin="round" stroke-width="1"/>
        <path id="Path_516" data-name="Path 516" d="M664.18,308.02v33.154" transform="translate(-164.1 19.502)" fill="none" stroke="#000" stroke-miterlimit="10" stroke-width="1"/>
        <path id="Path_517" data-name="Path 517" d="M653.83,318.37h33.154" transform="translate(-170.319 25.721)" fill="none" stroke="#000" stroke-miterlimit="10" stroke-width="1"/>
        <path id="Path_518" data-name="Path 518" d="M680.3,311.05l-11.718,11.718L656.86,334.487" transform="translate(-168.498 21.323)" fill="none" stroke="#000" stroke-miterlimit="10" stroke-width="1"/>
        <path id="Path_519" data-name="Path 519" d="M656.86,311.05l11.718,11.718L680.3,334.487" transform="translate(-168.498 21.323)" fill="none" stroke="#000" stroke-miterlimit="10" stroke-width="1"/>
        <circle id="Ellipse_20" data-name="Ellipse 20" cx="7.124" cy="7.124" r="7.124" transform="translate(555.534 302.1)" fill="none" stroke="#000" stroke-linecap="round" stroke-linejoin="round" stroke-width="1"/>
        <path id="Path_520" data-name="Path 520" d="M703.69,336.243a5.675,5.675,0,1,1-5.683-5.683A5.684,5.684,0,0,1,703.69,336.243Z" transform="translate(-147.179 33.046)" fill="none" stroke="#000" stroke-linecap="round" stroke-linejoin="round" stroke-width="1"/>
        <path id="Path_521" data-name="Path 521" d="M724.046,315.9l2.561,5.187,5.715.832-4.13,4.034.976,5.7-5.123-2.689-5.123,2.689.977-5.7-4.13-4.034,5.715-.832Z" transform="translate(-133.101 24.237)" fill="none" stroke="#000" stroke-linecap="round" stroke-linejoin="round" stroke-width="1"/>
        <path id="Path_522" data-name="Path 522" d="M360.092,135.81,362.638,141l5.731.832-4.146,4.034.977,5.7-5.107-2.689-5.123,2.689.977-5.7-4.146-4.034,5.731-.832Z" transform="translate(-351.8 -83.974)" fill="none" stroke="#000" stroke-linecap="round" stroke-linejoin="round" stroke-width="1"/>
        <path id="Path_523" data-name="Path 523" d="M514.312,156.75l2.561,5.187,5.715.832-4.146,4.034.977,5.7-5.107-2.689L509.19,172.5l.977-5.7-4.146-4.034,5.731-.832Z" transform="translate(-259.134 -71.392)" fill="none" stroke="#000" stroke-linecap="round" stroke-linejoin="round" stroke-width="1"/>
      </g>
    </g>
  </g>
</svg>
